/home/lucas/Documentos/calculatorPlus/src/main/java/br/edu/vianna/plus/calculatorplus/domain/EOperator.java
/home/lucas/Documentos/calculatorPlus/src/main/java/br/edu/vianna/plus/calculatorplus/controller/action/ViewDetalheCompeticaoAction.java
/home/lucas/Documentos/calculatorPlus/src/main/java/br/edu/vianna/plus/calculatorplus/controller/filter/FilterController.java
/home/lucas/Documentos/calculatorPlus/src/main/java/br/edu/vianna/plus/calculatorplus/controller/action/dto/RankingDTO.java
/home/lucas/Documentos/calculatorPlus/src/main/java/br/edu/vianna/plus/calculatorplus/controller/action/ViewHomeAction.java
/home/lucas/Documentos/calculatorPlus/src/main/java/br/edu/vianna/plus/calculatorplus/dao/DaoGenerics.java
/home/lucas/Documentos/calculatorPlus/src/main/java/br/edu/vianna/plus/calculatorplus/controller/action/ViewDashboardAction.java
/home/lucas/Documentos/calculatorPlus/src/main/java/br/edu/vianna/plus/calculatorplus/controller/action/SaveUserAction.java
/home/lucas/Documentos/calculatorPlus/src/main/java/br/edu/vianna/plus/calculatorplus/domain/Partida.java
/home/lucas/Documentos/calculatorPlus/src/main/java/br/edu/vianna/plus/calculatorplus/controller/faces/IActionCommand.java
/home/lucas/Documentos/calculatorPlus/src/main/java/br/edu/vianna/plus/calculatorplus/controller/action/LogoutAction.java
/home/lucas/Documentos/calculatorPlus/src/main/java/br/edu/vianna/plus/calculatorplus/controller/action/ViewLoginAction.java
/home/lucas/Documentos/calculatorPlus/src/main/java/br/edu/vianna/plus/calculatorplus/dao/JogoDao.java
/home/lucas/Documentos/calculatorPlus/src/main/java/br/edu/vianna/plus/calculatorplus/util/Util.java
/home/lucas/Documentos/calculatorPlus/src/main/java/br/edu/vianna/plus/calculatorplus/controller/action/ViewRankingAction.java
/home/lucas/Documentos/calculatorPlus/src/main/java/br/edu/vianna/plus/calculatorplus/controller/action/ViewCadastroUserAction.java
/home/lucas/Documentos/calculatorPlus/src/main/java/br/edu/vianna/plus/calculatorplus/controller/CentralController.java
/home/lucas/Documentos/calculatorPlus/src/main/java/br/edu/vianna/plus/calculatorplus/controller/action/ViewCompeticaoAction.java
/home/lucas/Documentos/calculatorPlus/src/main/java/br/edu/vianna/plus/calculatorplus/dao/UsuarioDao.java
/home/lucas/Documentos/calculatorPlus/src/main/java/br/edu/vianna/plus/calculatorplus/dao/PartidaDao.java
/home/lucas/Documentos/calculatorPlus/src/main/java/br/edu/vianna/plus/calculatorplus/domain/Jogo.java
/home/lucas/Documentos/calculatorPlus/src/main/java/br/edu/vianna/plus/calculatorplus/controller/action/ajaxDataGraphAction.java
/home/lucas/Documentos/calculatorPlus/src/main/java/br/edu/vianna/plus/calculatorplus/util/TesterMain.java
/home/lucas/Documentos/calculatorPlus/src/main/java/br/edu/vianna/plus/calculatorplus/domain/Usuario.java
